5. FunctionalCorrectness/PRESENT/sbox_vcd.vcd
$date
	Mon May  6 14:42:58 2024
$end
$version
	Icarus Verilog
$end
$timescale
	1ns
$end
$scope module present_tb $end
$var wire 1 ! Y3_1 $end
$var wire 1 " Y3_0 $end
$var wire 1 # Y2_1 $end
$var wire 1 $ Y2_0 $end
$var wire 1 % Y1_1 $end
$var wire 1 & Y1_0 $end
$var wire 1 ' Y0_1 $end
$var wire 1 ( Y0_0 $end
$var parameter 32 ) total_record $end
$var reg 1 * clk $end
$var reg 1 + r $end
$var reg 1 , x0_0 $end
$var reg 1 - x0_1 $end
$var reg 1 . x1_0 $end
$var reg 1 / x1_1 $end
$var reg 1 0 x2_0 $end
$var reg 1 1 x2_1 $end
$var reg 1 2 x3_0 $end
$var reg 1 3 x3_1 $end
$var integer 32 4 count [31:0] $end
$var integer 32 5 i [31:0] $end
$scope module dut $end
$var wire 1 6 L0_0 $end
$var wire 1 7 L0_1 $end
$var wire 1 8 L11_0 $end
$var wire 1 9 L11_1 $end
$var wire 1 : L1_0 $end
$var wire 1 ; L1_1 $end
$var wire 1 < L2_0 $end
$var wire 1 = L2_1 $end
$var wire 1 > L3_0 $end
$var wire 1 ? L3_1 $end
$var wire 1 @ L4_0 $end
$var wire 1 A L4_1 $end
$var wire 1 B L5_0 $end
$var wire 1 C L5_1 $end
$var wire 1 D L7_0 $end
$var wire 1 E L7_1 $end
$var wire 1 F L8_0 $end
$var wire 1 G L8_1 $end
$var wire 1 H Q2_0 $end
$var wire 1 I Q2_1 $end
$var wire 1 J Q6_0 $end
$var wire 1 K Q6_1 $end
$var wire 1 L Q7_0 $end
$var wire 1 M Q7_1 $end
$var wire 1 N T0_0 $end
$var wire 1 O T0_1 $end
$var wire 1 P T1_0 $end
$var wire 1 Q T1_1 $end
$var wire 1 R T2_0 $end
$var wire 1 S T2_1 $end
$var wire 1 T T3_0 $end
$var wire 1 U T3_1 $end
$var wire 1 V Y0_01 $end
$var wire 1 W Y0_11 $end
$var wire 1 X Y1_01 $end
$var wire 1 Y Y1_11 $end
$var wire 1 * clk $end
$var wire 1 Z i1_domand0 $end
$var wire 1 [ i1_domand1 $end
$var wire 1 \ i1_domand2 $end
$var wire 1 ] i1_domand3 $end
$var wire 1 ^ i2_domand0 $end
$var wire 1 _ i2_domand1 $end
$var wire 1 ` i2_domand2 $end
$var wire 1 a i2_domand3 $end
$var wire 1 b p1_domand0 $end
$var wire 1 c p1_domand1 $end
$var wire 1 d p1_domand2 $end
$var wire 1 e p1_domand3 $end
$var wire 1 f p2_domand0 $end
$var wire 1 g p2_domand1 $end
$var wire 1 h p2_domand2 $end
$var wire 1 i p2_domand3 $end
$var wire 1 j p3_domand0 $end
$var wire 1 k p3_domand1 $end
$var wire 1 l p3_domand2 $end
$var wire 1 m p3_domand3 $end
$var wire 1 n p4_domand0 $end
$var wire 1 o p4_domand1 $end
$var wire 1 p p4_domand2 $end
$var wire 1 q p4_domand3 $end
$var wire 1 + r $end
$var wire 1 r r_inp $end
$var wire 1 , x0_0 $end
$var wire 1 s x0_0_inp $end
$var wire 1 - x0_1 $end
$var wire 1 t x0_1_inp $end
$var wire 1 . x1_0 $end
$var wire 1 u x1_0_inp $end
$var wire 1 / x1_1 $end
$var wire 1 v x1_1_inp $end
$var wire 1 0 x2_0 $end
$var wire 1 w x2_0_inp $end
$var wire 1 1 x2_1 $end
$var wire 1 x x2_1_inp $end
$var wire 1 2 x3_0 $end
$var wire 1 y x3_0_inp $end
$var wire 1 3 x3_1 $end
$var wire 1 z x3_1_inp $end
$var wire 1 { z11_assgn11 $end
$var wire 1 | z13_assgn13 $end
$var wire 1 } z15_assgn15 $end
$var wire 1 ~ z17_assgn17 $end
$var wire 1 !" z239_assgn239 $end
$var wire 1 "" z241_assgn241 $end
$var wire 1 #" z251_assgn251 $end
$var wire 1 $" z253_assgn253 $end
$var wire 1 %" z7_assgn7 $end
$var wire 1 &" z9_assgn9 $end
$var wire 1 '" z2_assgn2 $end
$var wire 1 (" z1_assgn1 $end
$var wire 1 )" Q4_1 $end
$var wire 1 *" Q4_0 $end
$var wire 1 +" Q3_1 $end
$var wire 1 ," Q3_0 $end
$var wire 1 -" Q1_1 $end
$var wire 1 ." Q1_0 $end
$var wire 1 /" Q0_1 $end
$var wire 1 0" Q0_0 $end
$var reg 1 1" L10_0 $end
$var reg 1 2" L10_1 $end
$var reg 1 3" L5_0_reg $end
$var reg 1 4" L5_1_reg $end
$var reg 1 5" Q0_0_reg $end
$var reg 1 6" Q0_1_reg $end
$var reg 1 7" Q1_0_reg $end
$var reg 1 8" Q1_1_reg $end
$var reg 1 9" Q2_0_reg $end
$var reg 1 :" Q2_1_reg $end
$var reg 1 ;" Q3_0_reg $end
$var reg 1 <" Q3_1_reg $end
$var reg 1 =" Q4_0_reg $end
$var reg 1 >" Q4_1_reg $end
$var reg 1 ?" Q6_0_reg $end
$var reg 1 @" Q6_1_reg $end
$var reg 1 A" Q7_0_reg $end
$var reg 1 B" Q7_1_reg $end
$var reg 1 C" T0_0_reg $end
$var reg 1 D" T0_1_reg $end
$var reg 1 E" T2_0_reg $end
$var reg 1 F" T2_1_reg $end
$var reg 1 ( Y0_0 $end
$var reg 1 ' Y0_1 $end
$var reg 1 & Y1_0 $end
$var reg 1 % Y1_1 $end
$var reg 1 $ Y2_0 $end
$var reg 1 # Y2_1 $end
$var reg 1 " Y3_0 $end
$var reg 1 ! Y3_1 $end
$var reg 1 G" i1_domand0_reg $end
$var reg 1 H" i1_domand1_reg $end
$var reg 1 I" i1_domand2_reg $end
$var reg 1 J" i1_domand3_reg $end
$var reg 1 K" i2_domand0_reg $end
$var reg 1 L" i2_domand1_reg $end
$var reg 1 M" i2_domand2_reg $end
$var reg 1 N" i2_domand3_reg $end
$var reg 1 O" r_inp_reg $end
$var reg 1 P" x0_0_inp_reg $end
$var reg 1 Q" x0_1_inp_reg $end
$var reg 1 R" x1_0_inp_reg $end
$var reg 1 S" x1_1_inp_reg $end
$var reg 1 T" x2_0_inp_reg $end
$var reg 1 U" x2_1_inp_reg $end
$var reg 1 V" z239_assgn2390 $end
$var reg 1 W" z241_assgn2410 $end
$var reg 1 X" z251_assgn2510 $end
$var reg 1 Y" z253_assgn2530 $end
$var reg 1 Z" z3_assgn3 $end
$var reg 1 [" z3_assgn3_reg $end
$var reg 1 \" z45_assgn45 $end
$var reg 1 ]" z46_assgn46 $end
$var reg 1 ^" z53_assgn53 $end
$var reg 1 _" z54_assgn54 $end
$var reg 1 `" z5_assgn5 $end
$var reg 1 a" z5_assgn5_reg $end
$upscope $end
$upscope $end
$enddefinitions $end
$comment Show the parameter values. $end
$dumpall
b111110010 )
$end
#0
$dumpvars
0a"
0`"
0_"
0^"
0]"
0\"
0["
0Z"
0Y"
0X"
0W"
0V"
0U"
0T"
0S"
0R"
0Q"
0P"
0O"
0N"
1M"
0L"
1K"
0J"
1I"
0H"
1G"
0F"
0E"
0D"
0C"
0B"
0A"
1@"
1?"
1>"
1="
1<"
1;"
1:"
19"
18"
17"
16"
15"
04"
03"
02"
01"
10"
1/"
1."
1-"
1,"
1+"
1*"
1)"
0("
0'"
0&"
0%"
0$"
0#"
0""
0!"
0~
0}
0|
0{
0z
0y
0x
0w
0v
0u
0t
0s
0r
0q
1p
0o
1n
0m
1l
0k
1j
0i
1h
0g
1f
0e
1d
0c
1b
0a
1`
0_
1^
0]
1\
0[
1Z
0Y
0X
0W
0V
0U
0T
0S
0R
0Q
0P
0O
0N
0M
0L
1K
1J
1I
1H
0G
0F
0E
0D
0C
0B
0A
0@
1?
1>
1=
1<
0;
0:
09
08
07
06
b0 5
b0 4
03
02
01
00
0/
0.
0-
0,
0+
0*
0(
0'
0&
0%
0$
0#
0"
0!
$end
#5
1*
#10
1'
1$
1&
1|
1W
1&"
1Y
1X
0p
1E
0d
18
1G
1F
0M"
0@"
1B"
0I"
0:"
1D"
0?"
09"
11"
1_"
1]"
0`
0l
0K
0\
0I
1A
1M
0h
1O
0J
0H
0n
0b
0>
1("
0<
0G"
08"
05"
0>"
1S"
0="
1U"
1T"
1Y"
1W"
0Z
0f
0-"
1;
00"
16
1$"
0)"
1x
11
1v
1/
1""
0*"
1w
10
0*
#15
1*
#20
0*
#25
1*
#30
0*
#35
1*
#40
0*
#44
0'
0&
1!
0$
0|
0X
0W
0&"
0Y
1T
1p
1d
1~
0E
08
0G
1M"
1J"
1I"
0@"
1?"
1:"
19"
14"
0D"
01"
1^"
1`
1]
1\
1l
1i
1h
1I
0A
0K
1J
1H
0O
0?
1>
0("
1<
1C
0K"
06"
15"
07"
0S"
1R"
1Q"
1X"
0^
0j
0/"
17
10"
06
0."
1:
0v
0/
1#"
1t
1-
1u
1.
b1 5
#45
1*
#50
0*
#55
1*
#60
0*
#65
1*
#70
0*
#75
1*
#78
1(
0!
1#
1%
1"
1$
0&
1%"
1X
1V
1}
1&"
1Y
0T
0p
0~
1{
1D
19
18
1G
0J"
0?"
0M"
0B"
0:"
04"
13"
1C"
12"
11"
0^"
0]"
1\"
0`
0]
0J
0l
0i
1@
0I
0M
1N
1'"
0=
1("
0<
0C
1B
1G"
18"
1="
0R"
0T"
0Q"
0X"
1P"
0W"
1V"
1Z
1f
1-"
0;
0#"
0t
0-
0""
1*"
0w
00
0u
0.
1!"
1s
1,
b10 5
#80
0*
#85
1*
#90
0*
#95
1*
#100
0*
#105
1*
#110
0*
#112
1$
0#
1&
0(
1!
0%
0'
0X
1&"
1W
1T
0%"
1D
0}
1U
1E
1e
0d
0V
0P
09
08
1~
0|
0G
1N"
1@"
1?"
0M"
1D"
1A"
0:"
09"
03"
1E"
0B"
0I"
02"
01"
14"
1a"
0<"
0_"
1]"
0\"
1a
1m
1K
0`
1J
1A
0l
0@
1O
0I
0H
1L
0\
0M
1R
1n
0'"
1=
0("
1<
0B
0h
1C
1H"
16"
1>"
0="
1R"
0U"
1T"
0Y"
0P"
1W"
0V"
0+"
1`"
1[
1/"
07
1g
1z
13
0$"
1)"
0x
01
1""
0*"
1w
10
1u
1.
0!"
0s
0,
b11 5
#115
1*
#120
0*
#125
1*
#130
0*
#135
1*
#140
0*
#145
1*
#146
1#
0!
0%
1'
1$
0(
1}
19
18
1W
0T
1Q
0X
1P
1D
0~
1&"
1V
1E
0e
1|
0%"
1p
0F
1I"
1N"
19"
0C"
1@"
1:"
04"
0E"
0D"
1A"
0?"
0a"
13"
1["
1<"
0;"
0]"
1\
1h
1a
1H
1m
1I
0A
0N
1K
0J
1L
0O
0R
1b
1?
0C
0>
1B
1K"
0H"
17"
1="
0R"
0T"
0W"
1+"
0`"
0,"
1Z"
1^
1j
0[
1."
0:
0g
0z
03
1y
12
0""
1*"
0w
00
0u
0.
b100 5
#150
0*
#155
1*
#160
0*
#165
1*
#170
0*
#175
1*
#180
0$
1%
0(
1!
0&
0&"
0%"
1X
08
0Y
1V
1T
0P
0U
1~
1D
1J"
0I"
0N"
1?"
1B"
0@"
0A"
09"
14"
1C"
1_"
1^"
1]
0\
1i
0a
0h
1J
0m
0H
1@
0L
0K
1M
1N
0?
0n
1C
0K"
0G"
06"
08"
0>"
1U"
1Q"
1Y"
1X"
0^
0Z
0j
0f
0/"
17
0-"
1;
0*
1$"
0)"
1x
11
1#"
1t
1-
b101 5
#185
1*
#190
0*
#195
1*
#200
0*
#205
1*
#210
0*
#214
1'
0!
1#
1%
0&
0(
0X
1|
0V
0E
09
1Y
0T
1q
0~
1}
1W
0D
0Q
0%"
1d
1G
0J"
1I"
1N"
0?"
1@"
1A"
19"
1F"
0C"
1M"
0["
1;"
0_"
1]"
1\"
0]
1\
0i
1a
1h
0J
1m
1K
1H
0@
1L
1A
0N
1S
1`
0b
1o
1l
18"
05"
07"
1>"
1S"
0="
0U"
1T"
0Y"
1P"
1W"
1V"
1,"
0Z"
1-"
0;
00"
16
0."
1:
0$"
1)"
0x
01
1v
1/
0y
02
1""
0*"
1w
10
1!"
1s
1,
b110 5
#215
1*
#220
0*
#225
1*
#230
0*
#235
1*
#240
0*
#245
1*
#248
1(
1$
1!
1#
1%
0'
0&
1%"
1V
1&"
1E
19
1D
18
1Q
0Y
1X
0q
1~
1}
1W
1P
0|
0p
0G
1F
0N"
0@"
0F"
0I"
1a"
0<"
0^"
0]"
0a
0m
0K
0A
0S
0\
1n
0o
1c
0h
1K"
1H"
16"
17"
0S"
1="
1R"
0T"
0Q"
0X"
0W"
0+"
1`"
1^
1j
1[
1/"
07
1."
0:
1g
1z
13
0v
0/
0#"
0t
0-
0""
1*"
0w
00
1u
1.
b111 5
#250
0*
#255
1*
#260
0*
#265
1*
#270
0*
#275
1*
#280
0*
#282
0#
0%
1&
1(
0'
0"
1$
0W
0}
0E
09
1%"
0D
08
0Q
1e
0{
1&"
1V
0P
0|
1p
1J"
1?"
1E"
1I"
0a"
1<"
1_"
1^"
1]
1i
1J
1@
1\
1R
0n
1h
0K"
0H"
06"
08"
0>"
1U"
1Q"
1Y"
1X"
1+"
0`"
0^
0j
0[
0/"
17
0g
0-"
1;
0z
03
1$"
0)"
1x
11
1#"
1t
1-
b1000 5
#285
1*
#290
0*
#295
1*
#300
0*
#305
1*
#310
0*
#315
1*
#316
1"
0(
0%"
0d
1{
0V
18
1J"
0I"
1?"
09"
0E"
11"
1]
0\
1i
0h
0@
1J
0H
0R
1>
1("
0<
0c
15"
07"
0R"
10"
06
0."
1:
0u
0.
b1001 5
#320
0*
#325
1*
#330
0*
#335
1*
#340
0*
#345
1*
#350
1'
0!
1#
1%
0&
1|
1Y
1q
0~
1}
1W
1D
08
1G
1N"
1@"
1F"
03"
1E"
1C"
01"
0_"
1]"
0\"
1a
1m
1K
1A
1S
1N
1R
1o
0("
1<
0B
1G"
1H"
18"
1>"
1S"
0="
1R"
0U"
1T"
0Y"
0P"
1W"
0V"
1Z
1f
1[
1-"
0;
1g
0*
0$"
1)"
0x
01
1v
1/
1""
0*"
1w
10
1u
1.
0!"
0s
0,
b1010 5
#355
1*
#360
0*
#365
1*
#370
0*
#375
1*
#380
0*
#384
1!
0#
0'
1(
0|
1%"
0q
0e
1d
1~
0}
0W
1V
18
0J"
0N"
0@"
0?"
1I"
0A"
19"
13"
0F"
0E"
11"
0]"
1\"
0]
0i
1\
0a
0K
0J
1h
0m
0A
1@
1H
0L
0S
0R
1("
0<
1B
1L"
0H"
1="
0R"
0T"
1P"
0W"
1V"
1_
0[
1k
0g
0""
1*"
0w
00
0u
0.
1!"
1s
1,
b1011 5
#385
1*
#390
0*
#395
1*
#400
0*
#405
1*
#410
0*
#415
1*
#418
1'
1#
0%
1$
1&
0!
0(
1|
1W
1}
1V
1E
19
1&"
0X
1U
1P
1D
0~
1Q
18
0%"
0d
0G
0F
1N"
1A"
1I"
0C"
0B"
1@"
19"
04"
0?"
0M"
01"
1["
0;"
0^"
0\"
1a
1\
1m
0@
1L
1h
1K
0N
1H
0M
0`
0J
1n
1?
1b
0("
1<
0o
0C
0l
0>
0L"
1K"
16"
17"
0S"
0Q"
0X"
0P"
0V"
0,"
1Z"
1^
0_
1j
1/"
07
0k
1."
0:
0v
0/
0#"
0t
0-
1y
12
0!"
0s
0,
b1100 5
#420
0*
#425
1*
#430
0*
#435
1*
#440
0*
#445
1*
#450
0*
#452
0'
0$
0#
0&
1!
0"
0(
0|
0V
0&"
0W
0}
0D
08
0Y
0E
09
0P
0U
1T
1~
0Q
0{
0%"
1d
1F
0N"
1J"
1B"
0@"
14"
0A"
1?"
1M"
03"
0["
1;"
1_"
1^"
1]"
1]
0a
1i
0m
0K
1M
1`
1J
0L
0?
0n
0b
1C
1l
1>
0B
0K"
0G"
06"
08"
07"
0>"
0="
1R"
1U"
1T"
1Q"
1Y"
1X"
1W"
1,"
0Z"
0Z
0^
0f
0j
0/"
17
0-"
1;
0."
1:
1$"
0)"
1x
11
1#"
1t
1-
0y
02
1""
0*"
1w
10
1u
1.
b1101 5
#455
1*
#460
0*
#465
1*
#470
0*
#475
1*
#480
0*
#485
1*
#486
1&
0!
1$
1X
1&"
0T
0d
0~
18
0J"
0I"
0B"
1@"
0?"
09"
04"
11"
0_"
0^"
0\
0]
0h
0i
1K
0J
0H
0M
1?
1n
0>
1("
0<
0C
1K"
16"
18"
05"
17"
1>"
0R"
0U"
0Q"
0Y"
0X"
1^
1j
1/"
07
1-"
0;
00"
16
1."
0:
0$"
1)"
0x
01
0#"
0t
0-
0u
0.
b1110 5
#490
0*
#495
1*
#500
0*
#505
1*
#510
0*
#515
1*
#520
1!
1#
0%
0&
1U
1}
0Y
0X
1q
0p
1~
19
1G
0F
0M"
1B"
0:"
14"
12"
1^"
0]"
0`
0l
0I
1M
0n
1'"
0=
1c
1C
0K"
1H"
08"
07"
1="
1R"
0T"
1Q"
1X"
0W"
0^
0j
1[
0-"
1;
0."
1:
1g
0*
1#"
1t
1-
0""
1*"
0w
00
1u
1.
b1111 5
#525
1*
#530
0*
#535
1*
#540
0*
#545
1*
#550
0*
#554
1'
0#
0%
1"
1&
1(
1|
1%"
0U
0Y
1X
0}
1W
1{
1V
0q
1d
08
0G
1F
1I"
1F"
1E"
0B"
1@"
0?"
19"
04"
01"
0^"
1]"
1\
1A
1@
1h
1K
0J
1S
1R
1H
0M
0?
1>
1o
0c
0("
1<
0C
06"
15"
1S"
0="
1T"
0Q"
0X"
1W"
0/"
17
10"
06
1v
1/
0#"
0t
0-
1""
0*"
1w
10
b10000 5
#555
1*
#560
0*
#565
1*
#570
0*
#575
1*
#580
0*
#585
1*
#588
1#
0%
0'
0|
1U
0Y
1}
0W
1q
1G
0F"
1B"
1@"
14"
1^"
0A
1K
0S
1M
1?
0o
1C
16"
0S"
1Q"
1X"
1/"
07
0v
0/
1#"
1t
1-
b10001 5
#590
0*
#595
1*
#600
0*
#605
1*
#610
0*
#615
1*
#620
0*
#622
1'
0!
0"
0(
1|
0%"
1p
0d
0~
1W
0{
0V
09
18
0J"
1M"
0I"
1@"
0?"
1:"
09"
1F"
0E"
02"
11"
1`
0]
0\
1l
0i
0h
1A
0@
1K
1I
0J
0H
1S
0R
0?
0'"
1=
0>
1("
0<
1o
0H"
06"
18"
05"
17"
1S"
0R"
0[
0/"
17
1-"
0;
00"
16
1."
0:
0g
1v
1/
0u
0.
b10010 5
#625
1*
#630
0*
#635
1*
#640
0*
#645
1*
#650
0*
#655
1*
#656
b10011 5
#660
0*
#665
1*
#670
0*
#675
1*
#680
0*
#685
1*
#690
1%
0'
1"
1&
1Y
0|
1T
1X
0U
0W
0q
1e
0p
1{
19
0F
0N"
0@"
0M"
0F"
0B"
1A"
1?"
0:"
04"
13"
12"
1_"
0^"
1\"
0K
0`
0a
0A
0l
0m
1J
0S
0I
0M
1L
1b
1>
0o
1'"
0=
0C
1B
1G"
15"
0>"
0S"
1R"
1U"
0Q"
1Y"
0X"
1P"
1V"
1Z
1f
10"
06
0*
1$"
0)"
1x
11
0v
0/
0#"
0t
0-
1u
1.
1!"
1s
1,
b10100 5
#695
1*
#700
0*
#705
1*
#710
0*
#715
1*
#720
0*
#724
1(
1!
0#
0%
1&
1%"
0X
1V
0}
0Y
0T
0e
1p
1d
1~
1D
09
0G
1I"
0J"
0?"
1M"
1B"
0A"
1:"
19"
14"
1C"
02"
1^"
1\
1`
0]
1h
0J
1l
0i
1H
1@
0L
1I
1M
1N
0'"
1=
1C
0G"
08"
1Q"
1X"
0Z
0f
0-"
1;
1#"
1t
1-
b10101 5
#725
1*
#730
0*
#735
1*
#740
0*
#745
1*
#750
0*
#755
1*
#758
0(
1#
1%
0%"
0V
1}
1Y
1X
1e
0d
0D
1q
0p
19
1G
1F
1J"
0I"
1N"
1?"
1A"
0M"
09"
0C"
1@"
0:"
12"
0_"
0]"
1]
0\
1i
1a
0h
1J
0`
1m
0H
0@
1L
0l
1K
0N
0I
1?
0b
1'"
0=
16"
07"
1>"
1="
0R"
0U"
0T"
0Y"
0W"
1/"
07
0."
1:
0$"
1)"
0x
01
0""
1*"
0w
00
0u
0.
b10110 5
#760
0*
#765
1*
#770
0*
#775
1*
#780
0*
#785
1*
#790
0*
#792
0#
0"
0&
0}
0X
0q
0e
1p
0{
09
0F
0N"
0J"
1M"
0@"
0A"
0?"
1:"
03"
02"
0\"
1`
0]
0a
1l
0i
0m
0K
1I
0J
0L
0?
0'"
1=
0>
1o
1c
0B
1L"
1H"
06"
18"
05"
1S"
1R"
0P"
0V"
1_
1[
0/"
17
1-"
0;
1k
00"
16
1g
1v
1/
1u
1.
0!"
0s
0,
b10111 5
#795
1*
#800
0*
#805
1*
#810
0*
#815
1*
#820
0*
#825
1*
#826
1'
1#
1"
0&
1|
1T
0X
1}
1W
1e
1{
1F
0N"
1F"
0B"
0@"
1A"
1?"
04"
13"
1_"
0^"
1\"
0a
1A
0m
0K
1J
1S
0M
1L
1?
1>
0o
0c
0C
1B
0H"
16"
08"
15"
0>"
0R"
1U"
0Q"
1Y"
0X"
1P"
1V"
0[
1/"
07
0-"
1;
10"
06
0g
1$"
0)"
1x
11
0#"
0t
0-
0u
0.
1!"
1s
1,
b11000 5
#830
0*
#835
1*
#840
0*
#845
1*
#850
0*
#855
1*
#860
0'
1(
0!
0#
0&
0|
1%"
1X
0W
1V
0}
0Y
0T
1E
0e
1d
0~
1D
19
0G
1@"
1I"
0J"
0?"
1M"
1D"
0B"
0A"
1:"
19"
14"
1C"
12"
1^"
1\
1K
1`
0]
1h
0J
0A
1l
0i
1H
1@
0L
1O
1I
0M
1N
1n
1'"
0=
1C
1G"
18"
1Q"
1X"
1Z
1f
1-"
0;
0*
1#"
1t
1-
b11001 5
#865
1*
#870
0*
#875
1*
#880
0*
#885
1*
#890
0*
#894
1!
1#
0%
0"
1&
1}
1Y
0{
1q
1e
0p
1~
0D
09
08
1G
1N"
1J"
0M"
1E"
1B"
1A"
1?"
0:"
04"
0C"
02"
01"
0^"
1a
0`
1]
1m
0l
1i
1L
0I
1J
1R
1M
0N
0n
0'"
1=
0>
0("
1<
1c
0C
1K"
0G"
08"
05"
17"
1R"
0Q"
0X"
0Z
1^
0f
1j
0-"
1;
00"
16
1."
0:
0#"
0t
0-
1u
1.
b11010 5
#895
1*
#900
0*
#905
1*
#910
0*
#915
1*
#920
0*
#925
1*
#928
0(
0!
0#
1%
0$
0%"
0&"
0V
0q
0e
1p
0~
0}
0E
0N"
0J"
1M"
0E"
0B"
0A"
1?"
1:"
03"
0F"
0D"
1]"
0\"
1`
0]
0a
1l
0i
0@
0m
1I
0M
1J
0R
0L
0S
0O
1>
0c
0B
0L"
0K"
15"
07"
0="
1T"
0P"
1W"
0V"
0^
0_
0j
10"
06
0k
0."
1:
1""
0*"
1w
10
0!"
0s
0,
b11011 5
#930
0*
#935
1*
#940
0*
#945
1*
#950
0*
#955
1*
#960
0*
#962
0(
1$
1!
0'
0&
0%"
0V
1W
0D
1&"
0Y
0X
1E
0d
0P
18
1~
0|
0p
0G
0F
0M"
0:"
1D"
0?"
09"
0B"
1@"
0I"
11"
14"
1a"
0<"
0_"
0]"
0`
0l
0I
1A
1O
0J
0H
0\
1K
0M
1n
0>
1c
1("
0<
0h
0?
1C
1H"
18"
05"
1>"
0S"
1="
0U"
0T"
0Y"
0W"
0+"
1`"
1[
1g
1-"
0;
00"
16
1z
13
0$"
1)"
0x
01
0v
0/
0""
1*"
0w
00
b11100 5
#965
1*
#970
0*
#975
1*
#980
0*
#985
1*
#990
0*
#995
1*
#996
1#
0!
0%
0'
1"
0W
1}
1T
0E
1e
1{
19
0~
0|
1F
0@"
0N"
0J"
0M"
0D"
1A"
1?"
0:"
13"
0B"
12"
04"
0a"
1<"
1\"
0K
0`
0a
0]
0A
0l
0m
0i
0O
0I
1J
1L
0M
0n
1'"
0=
1>
1o
0c
1B
0C
1L"
0H"
06"
08"
15"
1S"
0R"
1P"
1V"
1+"
0`"
1_
0[
0/"
17
0-"
1;
1k
10"
06
0g
0z
03
1v
1/
0u
0.
1!"
1s
1,
b11101 5
#1000
0*
#1005
1*
#1010
0*
#1015
1*
#1020
0*
#1025
1*
#1030
1%
0$
0'
0(
1V
1U
1W
0&"
0Y
1X
1D
1q
1E
0e
08
0|
0%"
1G
0F
1J"
1@"
0A"
1C"
1B"
1:"
09"
1D"
1?"
01"
1a"
1["
0<"
0;"
1^"
0\"
1]
1i
1K
1@
0L
1I
1A
1M
1N
0H
1J
1O
1b
0("
1<
0o
0>
0L"
1K"
16"
17"
0S"
1Q"
1X"
0P"
0V"
0+"
1`"
0,"
1Z"
1^
0_
1j
1/"
07
0k
1."
0:
0*
1z
13
0v
0/
1#"
1t
1-
1y
12
0!"
0s
0,
b11110 5
#1035
1*
#1040
0*
#1045
1*
#1050
0*
#1055
1*
#1060
0*
#1064
1$
0#
1%
0'
1(
0U
1&"
0Y
0T
0q
0}
0W
18
0|
1%"
1p
1d
0G
1F
0J"
1I"
0B"
1@"
19"
14"
1F"
0?"
1M"
11"
0a"
0["
1<"
1;"
1_"
1\"
1\
0]
1h
0i
0A
1H
1K
0M
1`
0J
1S
1n
0b
1("
0<
1?
1C
1l
1>
1G"
1L"
0K"
18"
07"
0>"
1S"
1U"
1Y"
1P"
1V"
1+"
0`"
1,"
0Z"
1Z
0^
1f
1_
0j
1-"
0;
1k
0."
1:
0z
03
1$"
0)"
1x
11
1v
1/
0y
02
1!"
1s
1,
b11111 5
#1065
1*
#1070
0*
#1075
1*
#1080
0*
#1085
1*
#1090
0*
#1095
1*
#1098
1!
1Y
1~
0E
09
1G
1B"
1M"
0F"
0D"
0@"
1:"
02"
0_"
1`
1M
1l
0O
0K
0S
1I
0n
0?
1o
0'"
1=
06"
1>"
0U"
0Y"
0/"
17
0$"
1)"
0x
01
b100000 5
#1100
0*
#1105
1*
#1110
0*
#1115
1*
#1120
0*
#1125
1*
#1130
0*
#1132
0(
0%
0$
0%"
0V
0&"
0Y
0X
0D
08
0G
0F
0J"
1A"
0?"
0C"
01"
1_"
1]"
0]
0i
0@
1L
0J
0N
0>
0o
0("
1<
0G"
0L"
08"
05"
0>"
0S"
0="
1U"
1T"
1Y"
1W"
0Z
0f
0_
0-"
1;
00"
16
0k
1$"
0)"
1x
11
0v
0/
1""
0*"
1w
10
b100001 5
#1135
1*
#1140
0*
#1145
1*
#1150
0*
#1155
1*
#1160
0*
#1165
1*
#1166
0!
1#
1%
0"
1$
1&
1}
1&"
1Y
1X
0p
0d
0~
0{
19
18
1G
1F
0M"
0I"
0B"
0A"
0:"
09"
04"
03"
12"
11"
0^"
0\"
0`
0\
0l
0h
0I
0H
0M
0L
1'"
0=
1("
0<
0C
0B
18"
17"
0Q"
0X"
0P"
0V"
1-"
0;
1."
0:
0#"
0t
0-
0!"
0s
0,
b100010 5
#1170
0*
#1175
1*
#1180
0*
#1185
1*
#1190
0*
#1195
1*
#1200
1'
1!
0#
0%
1"
1(
1|
1%"
0Y
1d
1~
0}
1W
1{
1V
08
0G
1@"
1I"
0?"
19"
1F"
1E"
01"
0_"
1\
1K
1h
1A
1@
0J
1H
1S
1R
1>
0("
1<
1o
1H"
08"
15"
07"
1>"
1S"
1R"
0U"
0Y"
1[
0-"
1;
10"
06
0."
1:
1g
0*
0$"
1)"
0x
01
1v
1/
1u
1.
b100011 5
#1205
1*
#1210
0*
#1215
1*
#1220
0*
#1225
1*
#1230
0*
#1234
0'
0!
1%
0"
0$
0(
0|
0%"
1Y
0~
0W
1p
0{
0&"
0V
09
1G
1?"
1M"
0F"
1@"
1:"
0E"
02"
1_"
1`
1J
0A
1l
0@
1K
0S
1I
0R
1?
0o
0'"
1=
0H"
16"
0>"
1U"
1Y"
0[
1/"
07
0g
1$"
0)"
1x
11
b100100 5
#1235
1*
#1240
0*
#1245
1*
#1250
0*
#1255
1*
#1260
0*
#1265
1*
#1268
1'
1"
0&
1|
1W
0Y
0X
0p
1E
1{
0G
0F
0M"
0@"
0N"
1B"
0:"
1D"
1A"
0?"
13"
0_"
1\"
0`
0l
0K
0a
0I
1A
1M
0m
1O
0J
1L
1n
0>
1B
18"
05"
1>"
0S"
0R"
0U"
0Y"
1P"
1V"
1-"
0;
00"
16
0$"
1)"
0x
01
0v
0/
0u
0.
1!"
1s
1,
b100101 5
#1270
0*
#1275
1*
#1280
0*
#1285
1*
#1290
0*
#1295
1*
#1300
0*
#1302
0"
1$
1&"
0d
0{
18
0I"
0A"
09"
03"
11"
0]"
0\"
0\
0h
0H
0L
1c
1("
0<
0B
1H"
1="
1R"
0T"
0P"
0W"
0V"
1[
1g
0""
1*"
0w
00
1u
1.
0!"
0s
0,
b100110 5
#1305
1*
#1310
0*
#1315
1*
#1320
0*
#1325
1*
#1330
0*
#1335
1*
#1336
1!
1#
1'
1"
1|
1Y
1T
1p
0E
1e
1{
1~
1}
1W
1G
1F
1M"
0J"
0B"
1:"
0D"
1A"
1?"
13"
1F"
1_"
1\"
1`
1l
0]
1I
0M
0i
0O
1J
1L
1S
0n
1>
0c
1B
1L"
0H"
08"
15"
0>"
1S"
0R"
1U"
1Y"
1P"
1V"
1_
0[
0-"
1;
1k
10"
06
0g
1$"
0)"
1x
11
1v
1/
0u
0.
1!"
1s
1,
b100111 5
#1340
0*
#1345
1*
#1350
0*
#1355
1*
#1360
0*
#1365
1*
#1370
0%
0'
0"
0&
0Y
1U
0T
0|
0X
1q
0e
0p
0{
0W
19
0F
1@"
0M"
1B"
0A"
0?"
0:"
14"
03"
0F"
12"
0_"
1^"
0\"
0`
1K
0l
0A
0J
0I
1M
0L
0S
0>
1c
1'"
0=
1C
0B
0L"
1H"
05"
1>"
0S"
1R"
0U"
1Q"
0Y"
1X"
0P"
0V"
0_
1[
0k
00"
16
1g
0*
0$"
1)"
0x
01
0v
0/
1#"
1t
1-
1u
1.
0!"
0s
0,
b101000 5
